<svg width="93" height="93" viewBox="0 0 93 93" fill="none" xmlns="http://www.w3.org/2000/svg">
<circle cx="46.5" cy="46.5" r="46.5" fill="white"/>
<path d="M70 46.5L34 67.7176L34 25.2824L70 46.5Z" fill="#1B99EE"/>
</svg>
